{
	"bar_category": {
		"name": "bar_category",
		"label": "Bar Categories",
		"singular_label": "Bar Category",
		"description": "",
		"public": "true",
		"publicly_queryable": "true",
		"hierarchical": "false",
		"show_ui": "true",
		"show_in_menu": "true",
		"show_in_nav_menus": "true",
		"query_var": "true",
		"query_var_slug": "",
		"rewrite": "true",
		"rewrite_slug": "",
		"rewrite_withfront": "1",
		"rewrite_hierarchical": "0",
		"show_admin_column": "false",
		"show_in_rest": "false",
		"show_in_quick_edit": "true",
		"rest_base": "",
		"rest_controller_class": "",
		"labels": {
			"menu_name": "",
			"all_items": "",
			"edit_item": "",
			"view_item": "",
			"update_item": "",
			"add_new_item": "",
			"new_item_name": "",
			"parent_item": "",
			"parent_item_colon": "",
			"search_items": "",
			"popular_items": "",
			"separate_items_with_commas": "",
			"add_or_remove_items": "",
			"choose_from_most_used": "",
			"not_found": "",
			"no_terms": "",
			"items_list_navigation": "",
			"items_list": ""
		},
		"meta_box_cb": "",
		"object_types": ["drink"]
	}
}